cpu_tb.vcd
$date
	Sat Jul 19 18:55:27 2025
$end
$version
	Icarus Verilog
$end
$timescale
	1s
$end
$scope module cpu_tb $end
$var reg 1 ! clk $end
$var reg 1 " reset $end
$scope module cpu $end
$var wire 1 # ai_done $end
$var wire 1 $ ai_start $end
$var wire 1 ! clk $end
$var wire 7 % op_ex [6:0] $end
$var wire 1 " reset $end
$var wire 1 & stall $end
$var wire 1 ' stall_ai $end
$var wire 32 ( writeback_data [31:0] $end
$var wire 32 ) step_ex [31:0] $end
$var wire 1 * stall_hazard $end
$var wire 32 + sigmoid_ex [31:0] $end
$var wire 5 , rs2_id [4:0] $end
$var wire 5 - rs2_ex [4:0] $end
$var wire 5 . rs1_id [4:0] $end
$var wire 5 / rs1_ex [4:0] $end
$var wire 32 0 relu_ex [31:0] $end
$var wire 1 1 regwrite_wb $end
$var wire 1 2 regwrite_mem $end
$var wire 1 3 regwrite_id $end
$var wire 1 4 regwrite_ex $end
$var wire 32 5 read2_id [31:0] $end
$var wire 32 6 read2_ex [31:0] $end
$var wire 32 7 read1_id [31:0] $end
$var wire 32 8 read1_ex [31:0] $end
$var wire 5 9 rd_wb [4:0] $end
$var wire 5 : rd_mem [4:0] $end
$var wire 5 ; rd_id [4:0] $end
$var wire 5 < rd_ex [4:0] $end
$var wire 32 = pc_if [31:0] $end
$var wire 32 > pc_id [31:0] $end
$var wire 32 ? pc_ex [31:0] $end
$var wire 7 @ op_id [6:0] $end
$var wire 32 A mem_wb_data [31:0] $end
$var wire 32 B mem_data [31:0] $end
$var wire 256 C mat_res_ex [255:0] $end
$var wire 1 D is_load $end
$var wire 1 E is_ai_id $end
$var wire 1 F is_ai_ex $end
$var wire 32 G inst_if [31:0] $end
$var wire 32 H inst_id [31:0] $end
$var wire 32 I imm_id [31:0] $end
$var wire 32 J imm_ex [31:0] $end
$var wire 3 K funct3_id [2:0] $end
$var wire 32 L final_ex [31:0] $end
$var wire 32 M dot_ex [31:0] $end
$var wire 32 N alu_out_ex [31:0] $end
$var wire 4 O alu_op_id [3:0] $end
$var wire 4 P alu_op_ex [3:0] $end
$var wire 32 Q alu_mem_wb [31:0] $end
$var wire 32 R alu_ex_mem [31:0] $end
$var wire 3 S ai_opcode_id [2:0] $end
$var wire 3 T ai_opcode_ex [2:0] $end
$var wire 1 U ai_busy $end
$var reg 32 V sel_ai_ex [31:0] $end
$scope module alu0 $end
$var wire 1 W zero $end
$var wire 32 X input_b [31:0] $end
$var wire 32 Y input_a [31:0] $end
$var wire 4 Z alu_op [3:0] $end
$var reg 32 [ alu_result [31:0] $end
$upscope $end
$scope module ctrl $end
$var wire 7 \ opcode [6:0] $end
$var reg 4 ] alu_op [3:0] $end
$var reg 1 3 reg_write $end
$upscope $end
$scope module decoder $end
$var wire 32 ^ instruction [31:0] $end
$var reg 3 _ ai_opcode [2:0] $end
$var reg 1 E is_ai_instruction $end
$upscope $end
$scope module dmem $end
$var wire 1 ! clk $end
$var wire 1 ` mem_write $end
$var wire 32 a write_data [31:0] $end
$var wire 32 b address [31:0] $end
$var reg 32 c read_data [31:0] $end
$var integer 32 d i [31:0] $end
$upscope $end
$scope module dot0 $end
$var wire 128 e vec_a [127:0] $end
$var wire 128 f vec_b [127:0] $end
$var reg 64 g acc [63:0] $end
$var reg 32 h dot_result [31:0] $end
$var integer 32 i i [31:0] $end
$upscope $end
$scope module fsm $end
$var wire 1 ! clk $end
$var wire 1 $ start $end
$var reg 1 U busy $end
$var reg 1 j done $end
$var reg 2 k state [1:0] $end
$upscope $end
$scope module hz_inst $end
$var wire 5 l rs1_id [4:0] $end
$var wire 5 m rs2_id [4:0] $end
$var wire 1 1 regwrite_wb $end
$var wire 1 2 regwrite_mem $end
$var wire 1 4 regwrite_ex $end
$var wire 5 n rd_wb [4:0] $end
$var wire 5 o rd_mem [4:0] $end
$var wire 5 p rd_ex [4:0] $end
$var reg 1 * stall $end
$upscope $end
$scope module imem0 $end
$var wire 32 q pc [31:0] $end
$var reg 32 r instruction [31:0] $end
$upscope $end
$scope module imm $end
$var wire 32 s instruction [31:0] $end
$var reg 32 t immediate [31:0] $end
$upscope $end
$scope module mm0 $end
$var wire 1 ! clk $end
$var wire 256 u matrix_a [255:0] $end
$var wire 256 v matrix_b [255:0] $end
$var wire 1 $ start $end
$var reg 1 w done $end
$var reg 256 x result [255:0] $end
$upscope $end
$scope module pc0 $end
$var wire 1 ! clk $end
$var wire 1 " reset $end
$var reg 32 y pc_out [31:0] $end
$upscope $end
$scope module regs $end
$var wire 1 ! clk $end
$var wire 32 z read_data1 [31:0] $end
$var wire 32 { read_data2 [31:0] $end
$var wire 5 | read_reg1 [4:0] $end
$var wire 5 } read_reg2 [4:0] $end
$var wire 1 " reset $end
$var wire 32 ~ write_data [31:0] $end
$var wire 5 !" write_reg [4:0] $end
$var wire 1 1 reg_write $end
$var integer 32 "" i [31:0] $end
$upscope $end
$scope module relu0 $end
$var wire 32 #" out_data [31:0] $end
$var wire 32 $" in_data [31:0] $end
$upscope $end
$scope module sig0 $end
$var wire 32 %" out_data [31:0] $end
$var wire 32 &" in_data [31:0] $end
$upscope $end
$scope module step0 $end
$var wire 32 '" out_data [31:0] $end
$var wire 32 (" in_data [31:0] $end
$upscope $end
$scope module u_exmem $end
$var wire 32 )" alu_result_in [31:0] $end
$var wire 1 ! clk $end
$var wire 1 *" regwrite_in $end
$var wire 1 " reset $end
$var wire 5 +" rd_in [4:0] $end
$var reg 32 ," alu_result_out [31:0] $end
$var reg 5 -" rd_out [4:0] $end
$var reg 1 2 regwrite_out $end
$upscope $end
$scope module u_idex $end
$var wire 3 ." ai_opcode_in [2:0] $end
$var wire 4 /" alu_op_in [3:0] $end
$var wire 1 ! clk $end
$var wire 32 0" imm_in [31:0] $end
$var wire 1 E is_ai_in $end
$var wire 5 1" rd_in [4:0] $end
$var wire 32 2" read_data1_in [31:0] $end
$var wire 32 3" read_data2_in [31:0] $end
$var wire 1 3 regwrite_in $end
$var wire 1 " reset $end
$var wire 5 4" rs1_in [4:0] $end
$var wire 5 5" rs2_in [4:0] $end
$var wire 32 6" pc_in [31:0] $end
$var reg 3 7" ai_opcode_out [2:0] $end
$var reg 4 8" alu_op_out [3:0] $end
$var reg 32 9" imm_out [31:0] $end
$var reg 1 F is_ai_out $end
$var reg 32 :" pc_out [31:0] $end
$var reg 5 ;" rd_out [4:0] $end
$var reg 32 <" read_data1_out [31:0] $end
$var reg 32 =" read_data2_out [31:0] $end
$var reg 1 4 regwrite_out $end
$var reg 5 >" rs1_out [4:0] $end
$var reg 5 ?" rs2_out [4:0] $end
$upscope $end
$scope module u_ifid $end
$var wire 1 ! clk $end
$var wire 32 @" instruction_in [31:0] $end
$var wire 32 A" pc_in [31:0] $end
$var wire 1 " reset $end
$var wire 1 & stall $end
$var reg 32 B" instruction_out [31:0] $end
$var reg 32 C" pc_out [31:0] $end
$upscope $end
$scope module u_memwb $end
$var wire 32 D" alu_in [31:0] $end
$var wire 1 ! clk $end
$var wire 32 E" dm_in [31:0] $end
$var wire 5 F" rd_in [4:0] $end
$var wire 1 2 regwrite_in $end
$var wire 1 " reset $end
$var reg 32 G" alu_out [31:0] $end
$var reg 32 H" dm_out [31:0] $end
$var reg 5 I" rd_out [4:0] $end
$var reg 1 1 regwrite_out $end
$upscope $end
$upscope $end
$upscope $end
$enddefinitions $end
#0
$dumpvars
b0 I"
b0 H"
b0 G"
b0 F"
bx E"
b0 D"
b0 C"
b0 B"
b0 A"
b10100000000000010010011 @"
b0 ?"
b0 >"
b0 ="
b0 <"
b0 ;"
b0 :"
b0 9"
b0 8"
b0 7"
b0 6"
b0 5"
b0 4"
b0 3"
b0 2"
b0 1"
b0 0"
b0 /"
b0 ."
b0 -"
b0 ,"
b0 +"
0*"
b0 )"
b0 ("
b1 '"
b0 &"
b111111100000000000000000000000 %"
b0 $"
b0 #"
b100000 ""
b0 !"
b0 ~
b0 }
b0 |
b0 {
b0 z
b0 y
bx x
xw
b0 v
b0 u
b0 t
b0 s
b10100000000000010010011 r
b0 q
b0 p
b0 o
b0 n
b0 m
b0 l
bx k
xj
b100 i
bx h
bx g
bx00000000000000000000000000000000 f
bx00000000000000000000000000000000 e
b10000000000 d
bx c
b0 b
b0 a
x`
b0 _
b0 ^
b0 ]
b0 \
b0 [
b0 Z
b0 Y
b0 X
1W
bx V
xU
b0 T
b0 S
b0 R
b0 Q
b0 P
b0 O
b0 N
bx M
b0 L
b0 K
b0 J
b0 I
b0 H
b10100000000000010010011 G
0F
0E
xD
bx C
bx B
b0 A
b0 @
b0 ?
b0 >
b0 =
b0 <
b0 ;
b0 :
b0 9
b0 8
b0 7
b0 6
b0 5
04
03
02
01
b0 0
b0 /
b0 .
b0 -
b0 ,
b111111100000000000000000000000 +
0*
b1 )
b0 (
x'
x&
bz %
0$
x#
1"
0!
$end
#2
0w
b0 B
b0 c
b0 E"
b100000 ""
1!
#4
0!
#6
b100000 ""
1!
#8
0!
#10
b100000 ""
1!
#12
0!
#14
b100000 ""
1!
#16
0!
#18
b100000 ""
1!
#20
0!
#22
b100000 ""
1!
#24
0!
#26
b100000 ""
1!
#28
0!
#30
b101000000000000100010011 G
b101000000000000100010011 r
b101000000000000100010011 @"
b100 =
b100 q
b100 y
b100 A"
1!
0"
#32
0!
#34
b1000001000000110110011 G
b1000001000000110110011 r
b1000001000000110110011 @"
b1000 =
b1000 q
b1000 y
b1000 A"
1!
#36
0!
#38
b1100011000000100101011 G
b1100011000000100101011 r
b1100011000000100101011 @"
b1100 =
b1100 q
b1100 y
b1100 A"
1!
#40
0!
#42
b10000011000000110101011 G
b10000011000000110101011 r
b10000011000000110101011 @"
b10000 =
b10000 q
b10000 y
b10000 A"
1!
#44
0!
#46
b10100011100001001001011 G
b10100011100001001001011 r
b10100011100001001001011 @"
b10100 =
b10100 q
b10100 y
b10100 A"
1!
#48
0!
#50
b11000011101001001101011 G
b11000011101001001101011 r
b11000011101001001101011 @"
b11000 =
b11000 q
b11000 y
b11000 A"
1!
#52
0!
#54
b11100011110001010001011 G
b11100011110001010001011 r
b11100011110001010001011 @"
b11100 =
b11100 q
b11100 y
b11100 A"
1!
#56
0!
#58
b1100011 G
b1100011 r
b1100011 @"
b100000 =
b100000 q
b100000 y
b100000 A"
1!
#60
0!
#62
bx G
bx r
bx @"
b100100 =
b100100 q
b100100 y
b100100 A"
1!
#64
0!
#66
b101000 =
b101000 q
b101000 y
b101000 A"
1!
#68
0!
#70
b101100 =
b101100 q
b101100 y
b101100 A"
1!
#72
0!
#74
b110000 =
b110000 q
b110000 y
b110000 A"
1!
#76
0!
#78
b110100 =
b110100 q
b110100 y
b110100 A"
1!
#80
0!
#82
b111000 =
b111000 q
b111000 y
b111000 A"
1!
#84
0!
#86
b111100 =
b111100 q
b111100 y
b111100 A"
1!
#88
0!
#90
b1000000 =
b1000000 q
b1000000 y
b1000000 A"
1!
#92
0!
#94
b1000100 =
b1000100 q
b1000100 y
b1000100 A"
1!
#96
0!
#98
b1001000 =
b1001000 q
b1001000 y
b1001000 A"
1!
#100
0!
#102
b1001100 =
b1001100 q
b1001100 y
b1001100 A"
1!
#104
0!
#106
b1010000 =
b1010000 q
b1010000 y
b1010000 A"
1!
#108
0!
#110
b1010100 =
b1010100 q
b1010100 y
b1010100 A"
1!
#112
0!
#114
b1011000 =
b1011000 q
b1011000 y
b1011000 A"
1!
#116
0!
#118
b1011100 =
b1011100 q
b1011100 y
b1011100 A"
1!
#120
0!
#122
b1100000 =
b1100000 q
b1100000 y
b1100000 A"
1!
#124
0!
#126
b1100100 =
b1100100 q
b1100100 y
b1100100 A"
1!
#128
0!
#130
b1101000 =
b1101000 q
b1101000 y
b1101000 A"
1!
#132
0!
#134
b1101100 =
b1101100 q
b1101100 y
b1101100 A"
1!
#136
0!
#138
b1110000 =
b1110000 q
b1110000 y
b1110000 A"
1!
#140
0!
#142
b1110100 =
b1110100 q
b1110100 y
b1110100 A"
1!
#144
0!
#146
b1111000 =
b1111000 q
b1111000 y
b1111000 A"
1!
#148
0!
#150
b1111100 =
b1111100 q
b1111100 y
b1111100 A"
1!
#152
0!
#154
b10000000 =
b10000000 q
b10000000 y
b10000000 A"
1!
#156
0!
#158
b10000100 =
b10000100 q
b10000100 y
b10000100 A"
1!
#160
0!
#162
b10001000 =
b10001000 q
b10001000 y
b10001000 A"
1!
#164
0!
#166
b10001100 =
b10001100 q
b10001100 y
b10001100 A"
1!
#168
0!
#170
b10010000 =
b10010000 q
b10010000 y
b10010000 A"
1!
#172
0!
#174
b10010100 =
b10010100 q
b10010100 y
b10010100 A"
1!
#176
0!
#178
b10011000 =
b10011000 q
b10011000 y
b10011000 A"
1!
#180
0!
#182
b10011100 =
b10011100 q
b10011100 y
b10011100 A"
1!
#184
0!
#186
b10100000 =
b10100000 q
b10100000 y
b10100000 A"
1!
#188
0!
#190
b10100100 =
b10100100 q
b10100100 y
b10100100 A"
1!
#192
0!
#194
b10101000 =
b10101000 q
b10101000 y
b10101000 A"
1!
#196
0!
#198
b10101100 =
b10101100 q
b10101100 y
b10101100 A"
1!
#200
0!
#202
b10110000 =
b10110000 q
b10110000 y
b10110000 A"
1!
#204
0!
#206
b10110100 =
b10110100 q
b10110100 y
b10110100 A"
1!
#208
0!
#210
b10111000 =
b10111000 q
b10111000 y
b10111000 A"
1!
#212
0!
#214
b10111100 =
b10111100 q
b10111100 y
b10111100 A"
1!
#216
0!
#218
b11000000 =
b11000000 q
b11000000 y
b11000000 A"
1!
#220
0!
#222
b11000100 =
b11000100 q
b11000100 y
b11000100 A"
1!
#224
0!
#226
b11001000 =
b11001000 q
b11001000 y
b11001000 A"
1!
#228
0!
#230
b11001100 =
b11001100 q
b11001100 y
b11001100 A"
1!
#232
0!
#234
b11010000 =
b11010000 q
b11010000 y
b11010000 A"
1!
#236
0!
#238
b11010100 =
b11010100 q
b11010100 y
b11010100 A"
1!
#240
0!
#242
b11011000 =
b11011000 q
b11011000 y
b11011000 A"
1!
#244
0!
#246
b11011100 =
b11011100 q
b11011100 y
b11011100 A"
1!
#248
0!
#250
b11100000 =
b11100000 q
b11100000 y
b11100000 A"
1!
#252
0!
#254
b11100100 =
b11100100 q
b11100100 y
b11100100 A"
1!
#256
0!
#258
b11101000 =
b11101000 q
b11101000 y
b11101000 A"
1!
#260
0!
#262
b11101100 =
b11101100 q
b11101100 y
b11101100 A"
1!
#264
0!
#266
b11110000 =
b11110000 q
b11110000 y
b11110000 A"
1!
#268
0!
#270
b11110100 =
b11110100 q
b11110100 y
b11110100 A"
1!
#272
0!
#274
b11111000 =
b11111000 q
b11111000 y
b11111000 A"
1!
#276
0!
#278
b11111100 =
b11111100 q
b11111100 y
b11111100 A"
1!
#280
0!
#282
b100000000 =
b100000000 q
b100000000 y
b100000000 A"
1!
#284
0!
#286
b100000100 =
b100000100 q
b100000100 y
b100000100 A"
1!
#288
0!
#290
b100001000 =
b100001000 q
b100001000 y
b100001000 A"
1!
#292
0!
#294
b100001100 =
b100001100 q
b100001100 y
b100001100 A"
1!
#296
0!
#298
b100010000 =
b100010000 q
b100010000 y
b100010000 A"
1!
#300
0!
#302
b100010100 =
b100010100 q
b100010100 y
b100010100 A"
1!
#304
0!
#306
b100011000 =
b100011000 q
b100011000 y
b100011000 A"
1!
#308
0!
#310
b100011100 =
b100011100 q
b100011100 y
b100011100 A"
1!
#312
0!
#314
b100100000 =
b100100000 q
b100100000 y
b100100000 A"
1!
#316
0!
#318
b100100100 =
b100100100 q
b100100100 y
b100100100 A"
1!
#320
0!
#322
b100101000 =
b100101000 q
b100101000 y
b100101000 A"
1!
#324
0!
#326
b100101100 =
b100101100 q
b100101100 y
b100101100 A"
1!
#328
0!
#330
b100110000 =
b100110000 q
b100110000 y
b100110000 A"
1!
#332
0!
#334
b100110100 =
b100110100 q
b100110100 y
b100110100 A"
1!
#336
0!
#338
b100111000 =
b100111000 q
b100111000 y
b100111000 A"
1!
#340
0!
#342
b100111100 =
b100111100 q
b100111100 y
b100111100 A"
1!
#344
0!
#346
b101000000 =
b101000000 q
b101000000 y
b101000000 A"
1!
#348
0!
#350
b101000100 =
b101000100 q
b101000100 y
b101000100 A"
1!
#352
0!
#354
b101001000 =
b101001000 q
b101001000 y
b101001000 A"
1!
#356
0!
#358
b101001100 =
b101001100 q
b101001100 y
b101001100 A"
1!
#360
0!
#362
b101010000 =
b101010000 q
b101010000 y
b101010000 A"
1!
#364
0!
#366
b101010100 =
b101010100 q
b101010100 y
b101010100 A"
1!
#368
0!
#370
b101011000 =
b101011000 q
b101011000 y
b101011000 A"
1!
#372
0!
#374
b101011100 =
b101011100 q
b101011100 y
b101011100 A"
1!
#376
0!
#378
b101100000 =
b101100000 q
b101100000 y
b101100000 A"
1!
#380
0!
#382
b101100100 =
b101100100 q
b101100100 y
b101100100 A"
1!
#384
0!
#386
b101101000 =
b101101000 q
b101101000 y
b101101000 A"
1!
#388
0!
#390
b101101100 =
b101101100 q
b101101100 y
b101101100 A"
1!
#392
0!
#394
b101110000 =
b101110000 q
b101110000 y
b101110000 A"
1!
#396
0!
#398
b101110100 =
b101110100 q
b101110100 y
b101110100 A"
1!
#400
0!
#402
b101111000 =
b101111000 q
b101111000 y
b101111000 A"
1!
#404
0!
#406
b101111100 =
b101111100 q
b101111100 y
b101111100 A"
1!
#408
0!
#410
b110000000 =
b110000000 q
b110000000 y
b110000000 A"
1!
#412
0!
#414
b110000100 =
b110000100 q
b110000100 y
b110000100 A"
1!
#416
0!
#418
b110001000 =
b110001000 q
b110001000 y
b110001000 A"
1!
#420
0!
#422
b110001100 =
b110001100 q
b110001100 y
b110001100 A"
1!
#424
0!
#426
b110010000 =
b110010000 q
b110010000 y
b110010000 A"
1!
#428
0!
#430
b110010100 =
b110010100 q
b110010100 y
b110010100 A"
1!
#432
0!
#434
b110011000 =
b110011000 q
b110011000 y
b110011000 A"
1!
#436
0!
#438
b110011100 =
b110011100 q
b110011100 y
b110011100 A"
1!
#440
0!
#442
b110100000 =
b110100000 q
b110100000 y
b110100000 A"
1!
#444
0!
#446
b110100100 =
b110100100 q
b110100100 y
b110100100 A"
1!
#448
0!
#450
b110101000 =
b110101000 q
b110101000 y
b110101000 A"
1!
#452
0!
#454
b110101100 =
b110101100 q
b110101100 y
b110101100 A"
1!
#456
0!
#458
b110110000 =
b110110000 q
b110110000 y
b110110000 A"
1!
#460
0!
#462
b110110100 =
b110110100 q
b110110100 y
b110110100 A"
1!
#464
0!
#466
b110111000 =
b110111000 q
b110111000 y
b110111000 A"
1!
#468
0!
#470
b110111100 =
b110111100 q
b110111100 y
b110111100 A"
1!
#472
0!
#474
b111000000 =
b111000000 q
b111000000 y
b111000000 A"
1!
#476
0!
#478
b111000100 =
b111000100 q
b111000100 y
b111000100 A"
1!
#480
0!
#482
b111001000 =
b111001000 q
b111001000 y
b111001000 A"
1!
#484
0!
#486
b111001100 =
b111001100 q
b111001100 y
b111001100 A"
1!
#488
0!
#490
b111010000 =
b111010000 q
b111010000 y
b111010000 A"
1!
#492
0!
#494
b111010100 =
b111010100 q
b111010100 y
b111010100 A"
1!
#496
0!
#498
b111011000 =
b111011000 q
b111011000 y
b111011000 A"
1!
#500
0!
#502
b111011100 =
b111011100 q
b111011100 y
b111011100 A"
1!
#504
0!
#506
b111100000 =
b111100000 q
b111100000 y
b111100000 A"
1!
#508
0!
#510
b111100100 =
b111100100 q
b111100100 y
b111100100 A"
1!
#512
0!
#514
b111101000 =
b111101000 q
b111101000 y
b111101000 A"
1!
#516
0!
#518
b111101100 =
b111101100 q
b111101100 y
b111101100 A"
1!
#520
0!
#522
b111110000 =
b111110000 q
b111110000 y
b111110000 A"
1!
#524
0!
#526
b111110100 =
b111110100 q
b111110100 y
b111110100 A"
1!
#528
0!
#530
b10100000000000010010011 G
b10100000000000010010011 r
b10100000000000010010011 @"
b0 =
b0 q
b0 y
b0 A"
b100000 ""
1!
1"
#532
0!
#534
b100000 ""
1!
#536
0!
#538
b100000 ""
1!
#540
0!
#542
b100000 ""
1!
#544
0!
#546
b100000 ""
1!
#548
0!
#550
b100000 ""
1!
#552
0!
#554
b100000 ""
1!
#556
0!
#558
b100000 ""
1!
#560
0!
#562
b100000 ""
1!
#564
0!
#566
b100000 ""
1!
#568
0!
#570
b100000 ""
1!
#572
0!
#574
b100000 ""
1!
#576
0!
#578
b100000 ""
1!
#580
0!
#582
b100000 ""
1!
#584
0!
#586
b100000 ""
1!
#588
0!
#590
b100000 ""
1!
#592
0!
#594
b100000 ""
1!
#596
0!
#598
b100000 ""
1!
#600
0!
#602
b100000 ""
1!
#604
0!
#606
b100000 ""
1!
#608
0!
#610
b100000 ""
1!
#612
0!
#614
b100000 ""
1!
#616
0!
#618
b100000 ""
1!
#620
0!
#622
b100000 ""
1!
#624
0!
#626
b100000 ""
1!
#628
0!
#630
b100000 ""
1!
#632
0!
#634
b100000 ""
1!
#636
0!
#638
b100000 ""
1!
#640
0!
#642
b100000 ""
1!
#644
0!
#646
b100000 ""
1!
#648
0!
#650
b100000 ""
1!
#652
0!
#654
b100000 ""
1!
#656
0!
#658
b100000 ""
1!
#660
0!
#662
b100000 ""
1!
#664
0!
#666
b100000 ""
1!
#668
0!
#670
b100000 ""
1!
#672
0!
#674
b100000 ""
1!
#676
0!
#678
b100000 ""
1!
#680
0!
#682
b100000 ""
1!
#684
0!
#686
b100000 ""
1!
#688
0!
#690
b100000 ""
1!
#692
0!
#694
b100000 ""
1!
#696
0!
#698
b100000 ""
1!
#700
0!
#702
b100000 ""
1!
#704
0!
#706
b100000 ""
1!
#708
0!
#710
b100000 ""
1!
#712
0!
#714
b100000 ""
1!
#716
0!
#718
b100000 ""
1!
#720
0!
#722
b100000 ""
1!
#724
0!
#726
b100000 ""
1!
#728
0!
#730
b100000 ""
1!
#732
0!
#734
b100000 ""
1!
#736
0!
#738
b100000 ""
1!
#740
0!
#742
b100000 ""
1!
#744
0!
#746
b100000 ""
1!
#748
0!
#750
b100000 ""
1!
#752
0!
#754
b100000 ""
1!
#756
0!
#758
b100000 ""
1!
#760
0!
#762
b100000 ""
1!
#764
0!
#766
b100000 ""
1!
#768
0!
#770
b100000 ""
1!
#772
0!
#774
b100000 ""
1!
#776
0!
#778
b100000 ""
1!
#780
0!
#782
b100000 ""
1!
#784
0!
#786
b100000 ""
1!
#788
0!
#790
b100000 ""
1!
#792
0!
#794
b100000 ""
1!
#796
0!
#798
b100000 ""
1!
#800
0!
#802
b100000 ""
1!
#804
0!
#806
b100000 ""
1!
#808
0!
#810
b100000 ""
1!
#812
0!
#814
b100000 ""
1!
#816
0!
#818
b100000 ""
1!
#820
0!
#822
b100000 ""
1!
#824
0!
#826
b100000 ""
1!
#828
0!
#830
b100000 ""
1!
#832
0!
#834
b100000 ""
1!
#836
0!
#838
b100000 ""
1!
#840
0!
#842
b100000 ""
1!
#844
0!
#846
b100000 ""
1!
#848
0!
#850
b100000 ""
1!
#852
0!
#854
b100000 ""
1!
#856
0!
#858
b100000 ""
1!
#860
0!
#862
b100000 ""
1!
#864
0!
#866
b100000 ""
1!
#868
0!
#870
b100000 ""
1!
#872
0!
#874
b100000 ""
1!
#876
0!
#878
b100000 ""
1!
#880
0!
#882
b100000 ""
1!
#884
0!
#886
b100000 ""
1!
#888
0!
#890
b100000 ""
1!
#892
0!
#894
b100000 ""
1!
#896
0!
#898
b100000 ""
1!
#900
0!
#902
b100000 ""
1!
#904
0!
#906
b100000 ""
1!
#908
0!
#910
b100000 ""
1!
#912
0!
#914
b100000 ""
1!
#916
0!
#918
b100000 ""
1!
#920
0!
#922
b100000 ""
1!
#924
0!
#926
b100000 ""
1!
#928
0!
#930
b100000 ""
1!
#932
0!
#934
b100000 ""
1!
#936
0!
#938
b100000 ""
1!
#940
0!
#942
b100000 ""
1!
#944
0!
#946
b100000 ""
1!
#948
0!
#950
b100000 ""
1!
#952
0!
#954
b100000 ""
1!
#956
0!
#958
b100000 ""
1!
#960
0!
#962
b100000 ""
1!
#964
0!
#966
b100000 ""
1!
#968
0!
#970
b100000 ""
1!
#972
0!
#974
b100000 ""
1!
#976
0!
#978
b100000 ""
1!
#980
0!
#982
b100000 ""
1!
#984
0!
#986
b100000 ""
1!
#988
0!
#990
b100000 ""
1!
#992
0!
#994
b100000 ""
1!
#996
0!
#998
b100000 ""
1!
#1000
0!
#1002
b100000 ""
1!
#1004
0!
#1006
b100000 ""
1!
#1008
0!
#1010
b100000 ""
1!
#1012
0!
#1014
b100000 ""
1!
#1016
0!
#1018
b100000 ""
1!
#1020
0!
#1022
b100000 ""
1!
#1024
0!
#1026
b100000 ""
1!
#1028
0!
#1030
b101000000000000100010011 G
b101000000000000100010011 r
b101000000000000100010011 @"
b100 =
b100 q
b100 y
b100 A"
1!
0"
#1032
0!
#1034
b1000001000000110110011 G
b1000001000000110110011 r
b1000001000000110110011 @"
b1000 =
b1000 q
b1000 y
b1000 A"
1!
#1036
0!
#1038
b1100011000000100101011 G
b1100011000000100101011 r
b1100011000000100101011 @"
b1100 =
b1100 q
b1100 y
b1100 A"
1!
#1040
0!
#1042
b10000011000000110101011 G
b10000011000000110101011 r
b10000011000000110101011 @"
b10000 =
b10000 q
b10000 y
b10000 A"
1!
#1044
0!
#1046
b10100011100001001001011 G
b10100011100001001001011 r
b10100011100001001001011 @"
b10100 =
b10100 q
b10100 y
b10100 A"
1!
#1048
0!
#1050
b11000011101001001101011 G
b11000011101001001101011 r
b11000011101001001101011 @"
b11000 =
b11000 q
b11000 y
b11000 A"
1!
#1052
0!
#1054
b11100011110001010001011 G
b11100011110001010001011 r
b11100011110001010001011 @"
b11100 =
b11100 q
b11100 y
b11100 A"
1!
#1056
0!
#1058
b1100011 G
b1100011 r
b1100011 @"
b100000 =
b100000 q
b100000 y
b100000 A"
1!
#1060
0!
#1062
bx G
bx r
bx @"
b100100 =
b100100 q
b100100 y
b100100 A"
1!
#1064
0!
#1066
b101000 =
b101000 q
b101000 y
b101000 A"
1!
#1068
0!
#1070
b101100 =
b101100 q
b101100 y
b101100 A"
1!
#1072
0!
#1074
b110000 =
b110000 q
b110000 y
b110000 A"
1!
#1076
0!
#1078
b110100 =
b110100 q
b110100 y
b110100 A"
1!
#1080
0!
#1082
b111000 =
b111000 q
b111000 y
b111000 A"
1!
#1084
0!
#1086
b111100 =
b111100 q
b111100 y
b111100 A"
1!
#1088
0!
#1090
b1000000 =
b1000000 q
b1000000 y
b1000000 A"
1!
#1092
0!
#1094
b1000100 =
b1000100 q
b1000100 y
b1000100 A"
1!
#1096
0!
#1098
b1001000 =
b1001000 q
b1001000 y
b1001000 A"
1!
#1100
0!
#1102
b1001100 =
b1001100 q
b1001100 y
b1001100 A"
1!
#1104
0!
#1106
b1010000 =
b1010000 q
b1010000 y
b1010000 A"
1!
#1108
0!
#1110
b1010100 =
b1010100 q
b1010100 y
b1010100 A"
1!
#1112
0!
#1114
b1011000 =
b1011000 q
b1011000 y
b1011000 A"
1!
#1116
0!
#1118
b1011100 =
b1011100 q
b1011100 y
b1011100 A"
1!
#1120
0!
#1122
b1100000 =
b1100000 q
b1100000 y
b1100000 A"
1!
#1124
0!
#1126
b1100100 =
b1100100 q
b1100100 y
b1100100 A"
1!
#1128
0!
#1130
b1101000 =
b1101000 q
b1101000 y
b1101000 A"
1!
#1132
0!
#1134
b1101100 =
b1101100 q
b1101100 y
b1101100 A"
1!
#1136
0!
#1138
b1110000 =
b1110000 q
b1110000 y
b1110000 A"
1!
#1140
0!
#1142
b1110100 =
b1110100 q
b1110100 y
b1110100 A"
1!
#1144
0!
#1146
b1111000 =
b1111000 q
b1111000 y
b1111000 A"
1!
#1148
0!
#1150
b1111100 =
b1111100 q
b1111100 y
b1111100 A"
1!
#1152
0!
#1154
b10000000 =
b10000000 q
b10000000 y
b10000000 A"
1!
#1156
0!
#1158
b10000100 =
b10000100 q
b10000100 y
b10000100 A"
1!
#1160
0!
#1162
b10001000 =
b10001000 q
b10001000 y
b10001000 A"
1!
#1164
0!
#1166
b10001100 =
b10001100 q
b10001100 y
b10001100 A"
1!
#1168
0!
#1170
b10010000 =
b10010000 q
b10010000 y
b10010000 A"
1!
#1172
0!
#1174
b10010100 =
b10010100 q
b10010100 y
b10010100 A"
1!
#1176
0!
#1178
b10011000 =
b10011000 q
b10011000 y
b10011000 A"
1!
#1180
0!
#1182
b10011100 =
b10011100 q
b10011100 y
b10011100 A"
1!
#1184
0!
#1186
b10100000 =
b10100000 q
b10100000 y
b10100000 A"
1!
#1188
0!
#1190
b10100100 =
b10100100 q
b10100100 y
b10100100 A"
1!
#1192
0!
#1194
b10101000 =
b10101000 q
b10101000 y
b10101000 A"
1!
#1196
0!
#1198
b10101100 =
b10101100 q
b10101100 y
b10101100 A"
1!
#1200
0!
#1202
b10110000 =
b10110000 q
b10110000 y
b10110000 A"
1!
#1204
0!
#1206
b10110100 =
b10110100 q
b10110100 y
b10110100 A"
1!
#1208
0!
#1210
b10111000 =
b10111000 q
b10111000 y
b10111000 A"
1!
#1212
0!
#1214
b10111100 =
b10111100 q
b10111100 y
b10111100 A"
1!
#1216
0!
#1218
b11000000 =
b11000000 q
b11000000 y
b11000000 A"
1!
#1220
0!
#1222
b11000100 =
b11000100 q
b11000100 y
b11000100 A"
1!
#1224
0!
#1226
b11001000 =
b11001000 q
b11001000 y
b11001000 A"
1!
#1228
0!
#1230
b11001100 =
b11001100 q
b11001100 y
b11001100 A"
1!
#1232
0!
#1234
b11010000 =
b11010000 q
b11010000 y
b11010000 A"
1!
#1236
0!
#1238
b11010100 =
b11010100 q
b11010100 y
b11010100 A"
1!
#1240
0!
#1242
b11011000 =
b11011000 q
b11011000 y
b11011000 A"
1!
#1244
0!
